Lab 8: Machine Learning
…
collect_metrics(model_params)

# A tibble: 75 × 8
    mtry min_n .metric .estimator  mean     n std_err .config              
   <int> <int> <chr>   <chr>      <dbl> <int>   <dbl> <chr>                
 1     1    24 mae     standard   0.319    10  0.0184 Preprocessor1_Model01
 2     1    24 rmse    standard   0.489    10  0.0419 Preprocessor1_Model01
 3     1    24 rsq     standard   0.899    10  0.0132 Preprocessor1_Model01
 4     1    13 mae     standard   0.315    10  0.0183 Preprocessor1_Model02
 5     1    13 rmse    standard   0.482    10  0.0414 Preprocessor1_Model02
 6     1    13 rsq     standard   0.900    10  0.0144 Preprocessor1_Model02
 7     1    33 mae     standard   0.322    10  0.0203 Preprocessor1_Model03
 8     1    33 rmse    standard   0.494    10  0.0470 Preprocessor1_Model03
 9     1    33 rsq     standard   0.898    10  0.0126 Preprocessor1_Model03
10     1     5 mae     standard   0.313    10  0.0186 Preprocessor1_Model04
# ℹ 65 more rows
…
final_model <- finalize_model(rf_tune, hp_best)

final_wf <- workflow() %>%
  add_model(final_model) %>%
  add_recipe(rec)

final_fit_full <- fit(final_wf, data = camels_clean)

final_predictions_full <- augment(final_fit_full, new_data = camels_clean)

final_predictions_full %>%
  mutate(residuals = (.pred - q_mean)^2)

# A tibble: 670 × 61
   .pred gauge_id p_mean pet_mean p_seasonality frac_snow aridity high_prec_freq
   <dbl> <chr>     <dbl>    <dbl>         <dbl>     <dbl>   <dbl>          <dbl>
 1  1.74 01013500   3.13     1.97        0.188      0.313   0.631           13.0
 2  2.08 01022500   3.61     2.12       -0.115      0.245   0.587           20.6
 3  1.87 01030500   3.27     2.04        0.0474     0.277   0.624           17.2
 4  2.04 01031500   3.52     2.07        0.104      0.292   0.588           18.9
 5  2.01 01047000   3.32     2.09        0.148      0.280   0.629           20.1
 6  2.28 01052500   3.73     2.10        0.152      0.353   0.562           13.5
 7  2.75 01054200   4.07     2.13        0.105      0.300   0.523           17.5
 8  2.12 01055000   3.49     2.09        0.167      0.306   0.599           19.2
 9  1.96 01057000   3.57     2.13        0.0791     0.251   0.597           20.4
10  1.75 01073000   3.50     2.21        0.0304     0.175   0.630           20.8
# ℹ 660 more rows
# ℹ 53 more variables: high_prec_dur <dbl>, high_prec_timing <chr>,
#   low_prec_freq <dbl>, low_prec_dur <dbl>, low_prec_timing <chr>,
#   geol_1st_class <chr>, glim_1st_class_frac <dbl>, geol_2nd_class <chr>,
#   glim_2nd_class_frac <dbl>, carbonate_rocks_frac <dbl>, geol_porostiy <dbl>,
#   geol_permeability <dbl>, soil_depth_pelletier <dbl>,
#   soil_depth_statsgo <dbl>, soil_porosity <dbl>, soil_conductivity <dbl>, …
…
